{
  "development": {
    "username": "working",
    "password": "12345",
    "database": "exchange_item",
    "host": "172.18.0.2",
    "dialect": "mysql"
  },
  "test": {
    "username": "working",
    "password": "12345",
    "database": "exchange_item",
    "host": "172.18.0.2",
    "dialect": "mysql"
  },
  "production": {
    "username": "",
    "password": null,
    "database": "",
    "host": "",
    "dialect": "mysql"
  }
}
